…
    ## # A tibble: 1 x 1
    ##   `sum(Survived)/length(Survived)`
    ##                              <dbl>
    ## 1                            0.597

##### 20\. Add column that standardizes the fare (subtract the mean and divide by standard deviation) and name it sfare

``` r
titanic %>%
  mutate(sfare = ((Fare - mean(Fare)) / sd(Fare) ))
```

    ## # A tibble: 891 x 13
    ##    PassengerId Survived Pclass Name  Sex     Age SibSp Parch Ticket  Fare
    ##          <dbl>    <dbl>  <dbl> <chr> <chr> <dbl> <dbl> <dbl> <chr>  <dbl>
    ##  1           1        0      3 Brau~ male     22     1     0 A/5 2~  7.25
    ##  2           2        1      1 Cumi~ fema~    38     1     0 PC 17~ 71.3 
    ##  3           3        1      3 Heik~ fema~    26     0     0 STON/~  7.92
    ##  4           4        1      1 Futr~ fema~    35     1     0 113803 53.1 
    ##  5           5        0      3 Alle~ male     35     0     0 373450  8.05
    ##  6           6        0      3 Mora~ male     NA     0     0 330877  8.46
    ##  7           7        0      1 McCa~ male     54     0     0 17463  51.9 
    ##  8           8        0      3 Pals~ male      2     3     1 349909 21.1 
    ##  9           9        1      3 John~ fema~    27     0     2 347742 11.1 
    ## 10          10        1      2 Nass~ fema~    14     1     0 237736 30.1 
    ## # ... with 881 more rows, and 3 more variables: Cabin <chr>,
    ## #   Embarked <chr>, sfare <dbl>

##### 21\. Add categorical variable named cfare that takes value cheap for passengers paying less the average fare and takes value expensive for passengers paying more than the average fare.

``` r
titanic %>% 
  mutate(cfare = cut(Fare, breaks= c(0, mean(Fare), Inf), labels = c("cheap", "expensive") ))
```

    ## # A tibble: 891 x 13
    ##    PassengerId Survived Pclass Name  Sex     Age SibSp Parch Ticket  Fare
    ##          <dbl>    <dbl>  <dbl> <chr> <chr> <dbl> <dbl> <dbl> <chr>  <dbl>
    ##  1           1        0      3 Brau~ male     22     1     0 A/5 2~  7.25
    ##  2           2        1      1 Cumi~ fema~    38     1     0 PC 17~ 71.3 
    ##  3           3        1      3 Heik~ fema~    26     0     0 STON/~  7.92
    ##  4           4        1      1 Futr~ fema~    35     1     0 113803 53.1 
    ##  5           5        0      3 Alle~ male     35     0     0 373450  8.05
    ##  6           6        0      3 Mora~ male     NA     0     0 330877  8.46
    ##  7           7        0      1 McCa~ male     54     0     0 17463  51.9 
    ##  8           8        0      3 Pals~ male      2     3     1 349909 21.1 
    ##  9           9        1      3 John~ fema~    27     0     2 347742 11.1 
    ## 10          10        1      2 Nass~ fema~    14     1     0 237736 30.1 
    ## # ... with 881 more rows, and 3 more variables: Cabin <chr>,
    ## #   Embarked <chr>, cfare <fct>

##### 22\. Add categorical variable named cage that takes value 0 for age 0-10, 1 for age 10-20, 2 for age 20-30, and so on

``` r
titanic %>% 
  mutate(cage = cut(Age, breaks = c(0,10,20,30,40,50,60,70,80,90,Inf), labels = c(0,1,2,3,4,5,6,7,8,9)))
```

    ## # A tibble: 891 x 13
    ##    PassengerId Survived Pclass Name  Sex     Age SibSp Parch Ticket  Fare
    ##          <dbl>    <dbl>  <dbl> <chr> <chr> <dbl> <dbl> <dbl> <chr>  <dbl>
    ##  1           1        0      3 Brau~ male     22     1     0 A/5 2~  7.25
    ##  2           2        1      1 Cumi~ fema~    38     1     0 PC 17~ 71.3 
    ##  3           3        1      3 Heik~ fema~    26     0     0 STON/~  7.92
    ##  4           4        1      1 Futr~ fema~    35     1     0 113803 53.1 
    ##  5           5        0      3 Alle~ male     35     0     0 373450  8.05
    ##  6           6        0      3 Mora~ male     NA     0     0 330877  8.46
    ##  7           7        0      1 McCa~ male     54     0     0 17463  51.9 
    ##  8           8        0      3 Pals~ male      2     3     1 349909 21.1 
    ##  9           9        1      3 John~ fema~    27     0     2 347742 11.1 
    ## 10          10        1      2 Nass~ fema~    14     1     0 237736 30.1 
    ## # ... with 881 more rows, and 3 more variables: Cabin <chr>,
    ## #   Embarked <chr>, cage <fct>
…
``` r
library(readxl)
c2015 <- read_excel("C:/Users/student/Documents/Senior Year/MATH 421/Assignment 2/c2015.xlsx")
```

##### 4\. Use dim function to check the dimension of the data. Since this data is quite big, a common practice is to randomly subset the data to analyze. Use sample function to create a new dataset that has a random 1000 observations from the original data. Use set.seed(2019) before using the sample function to set the seed for the randomness so that everyone in class is working with the same random subset of the data.

``` r
set.seed(2019)
c2015 %>% 
  sample_n(1000)
```

    ## # A tibble: 1,000 x 28
    ##    STATE ST_CASE VEH_NO PER_NO COUNTY   DAY MONTH  HOUR MINUTE AGE   SEX  
    ##    <chr>   <dbl>  <dbl>  <dbl>  <dbl> <dbl> <chr> <dbl>  <dbl> <chr> <chr>
    ##  1 New ~  340336      1      1     27    19 Sept~     3     17 Unkn~ Unkn~
    ##  2 Ariz~   40327      1      1     13     7 May      22     15 47    Fema~
    ##  3 Tenn~  470789      1      1    163     2 Dece~     8     26 23    Male 
    ##  4 Minn~  270119      2      4     59    16 May      21     59 15    Fema~
    ##  5 Miss~  290576      1      1    201     2 Octo~    15     38 55    Male 
    ##  6 Cali~   62865      1      1     19     6 June     15     20 56    Male 
    ##  7 New ~  330095      0      1     15     3 Dece~    14     32 26    Male 
    ##  8 Iowa   190173      0      1    127    30 Augu~    20     20 63    Male 
    ##  9 Cali~   62263      2      4     13    17 Dece~     7     41 6     Male 
    ## 10 Alab~   10286      5      1    115    30 May      14     36 32    Male 
    ## # ... with 990 more rows, and 17 more variables: PER_TYP <chr>,
    ## #   INJ_SEV <chr>, SEAT_POS <chr>, DRINKING <chr>, YEAR <dbl>,
    ## #   MAN_COLL <chr>, OWNER <chr>, MOD_YEAR <chr>, TRAV_SP <chr>,
    ## #   DEFORMED <chr>, DAY_WEEK <chr>, ROUTE <chr>, LATITUDE <dbl>,
    ## #   LONGITUD <dbl>, HARM_EV <chr>, LGT_COND <chr>, WEATHER <chr>
…
``` r
select(c2015, -YEAR)
```

    ## # A tibble: 80,587 x 27
    ##    STATE ST_CASE VEH_NO PER_NO COUNTY   DAY MONTH  HOUR MINUTE AGE   SEX  
    ##    <chr>   <dbl>  <dbl>  <dbl>  <dbl> <dbl> <chr> <dbl>  <dbl> <chr> <chr>
    ##  1 Alab~   10001      1      1    127     1 Janu~     2     40 68    Male 
    ##  2 Alab~   10002      1      1     83     1 Janu~    22     13 49    Male 
    ##  3 Alab~   10003      1      1     11     1 Janu~     1     25 31    Male 
    ##  4 Alab~   10003      1      2     11     1 Janu~     1     25 20    Fema~
    ##  5 Alab~   10004      1      1     45     4 Janu~     0     57 40    Male 
    ##  6 Alab~   10005      1      1     45     7 Janu~     7      9 24    Male 
    ##  7 Alab~   10005      2      1     45     7 Janu~     7      9 60    Male 
    ##  8 Alab~   10006      1      1    111     8 Janu~     9     59 64    Male 
    ##  9 Alab~   10006      1      2    111     8 Janu~     9     59 17    Male 
    ## 10 Alab~   10007      1      1     89     8 Janu~    18     33 80    Male 
    ## # ... with 80,577 more rows, and 16 more variables: PER_TYP <chr>,
    ## #   INJ_SEV <chr>, SEAT_POS <chr>, DRINKING <chr>, MAN_COLL <chr>,
    ## #   OWNER <chr>, MOD_YEAR <chr>, TRAV_SP <chr>, DEFORMED <chr>,
    ## #   DAY_WEEK <chr>, ROUTE <chr>, LATITUDE <dbl>, LONGITUD <dbl>,
    ## #   HARM_EV <chr>, LGT_COND <chr>, WEATHER <chr>
…
``` r
#Drivers who are drinking drive faster
```

#### 3\. Calculate the travel speed (TRAV\_SP variable) by day. Compare the travel speed of the first 5 days and the last 5 days of months.

``` r
c2015 %>% 
  group_by(DAY) %>% 
    summarize(mean(TRAV_SP))
```

    ## # A tibble: 31 x 2
    ##      DAY `mean(TRAV_SP)`
    ##    <dbl>           <dbl>
    ##  1     1            49.1
    ##  2     2            51.4
    ##  3     3            50.0
    ##  4     4            49.3
    ##  5     5            50.5
    ##  6     6            49.9
    ##  7     7            49.0
    ##  8     8            50.6
    ##  9     9            46.6
    ## 10    10            50.5
    ## # ... with 21 more rows
…
